code	is_trusted	description
Expected = Predicted	TRUE	Expected or reported serovar matched the cgMLST and antigen-based serovar prediction.
Type 1: Incorrect expected serovar	TRUE	Evidence from cgMLST strongly suggested that the serovar supplied in the metadata for the genome in question was incorrect. In these cases, the genome was part of a cgMLST cluster in which most or all of the other members had a reported serovar that matched the predicted serovar. The serovar for these genomes was changed to match the cgMLST and antigen-based serovar prediction. 
Type 2: Serovar variant detected	TRUE	The reported serovar was a known variant of the predicted serovar (e.g. Cholerasuis var. Kunzendorf). These serovar variants are generally defined by additional phenotypic traits. The serovar for these genomes was changed to the non-variant type.
Type 3: Ambiguous expected serovar	FALSE	Missing or ambiguous serovar metadata made it impossible to ascertain the reported serovar. These genomes are not used for cgMLST-based serovar prediction. 
Type 4: Poor quality of in silico analysis	FALSE	The cgMLST data was of poor quality with 30 or more missing/incomplete loci potentially due to poor genome assembly quality, or the genome assemblies were of sufficient quality for successful in silico analysis. Evidence from sequence homology suggested that some genomes were not Salmonella enterica but from other species including Escherichia coli and Citrobacter freundii. These genomes are not used for cgMLST-based serovar prediction. 
Type 5: Partial antigenic calls	FALSE	A serovar prediction could not be made due to missing data for one or more antigens. Although in many cases one or two antigens were predicted and matched those of the reported serovar, determination of the serovar was not possible.
Type 6: Ambiguous predicted serovar	FALSE	The serovar prediction could not be narrowed down to a single serovar, typically for serovars from different subspecies that share the same antigenic formula. These cases often represented genomes from lineages with insufficient examples in the dataset, which precluded the use of contextual phylogenetic information from cgMLST to narrow down the likely serovar.  
Type 7: Insufficient support for prediction	FALSE	Insufficient evidence from cgMLST in support for the predicted serovar to supersede the reported serovar.
Ditched	FALSE	Missing or incomplete serovar information in the supplied metadata.
